PBL01/genius_PBL01.cache/wt/genius_PBL01.sim/sim_1/behav/xsim/tb_genius_game.vcd
$date
   Mon May  5 13:14:52 2025
$end

$version
  2024.1
  $dumpfile ("tb_genius_game.vcd") 
$end

$timescale
  1ps
$end

$scope module tb_genius_game $end
$scope module dut $end
$var wire 1 ! clk $end
$var wire 1 " reset $end
$var wire 1 # botao_start $end
$var wire 2 $ entrada_jogador [1:0] $end
$var reg 1 % partida_led $end
$var reg 4 & led_seq [3:0] $end
$var reg 7 ' display [6:0] $end
$var reg 1 ( win $end
$var reg 1 ) defeat $end
$var reg 2 * numero_aleatorio [1:0] $end
$var reg 8 + score_atual [7:0] $end
$var reg 4 , sinais_de_controle [3:0] $end
$var reg 4 - indice_sequencia [3:0] $end
$scope module gnr $end
$var wire 1 ! clk $end
$var wire 1 " reset $end
$var wire 1 . enable $end
$var reg 2 * random_out [1:0] $end
$var reg 4 / lfsr [3:0] $end
$var reg 1 0 feedback $end
$upscope $end
$scope module register_bank $end
$var wire 1 ! clk $end
$var wire 1 " reset $end
$var wire 1 1 sequencia_write $end
$var wire 2 2 cor_input [1:0] $end
$var reg 4 - indice_sequencia [3:0] $end
$var reg 4 3 indice [3:0] $end
$upscope $end
$scope module score_manager $end
$var wire 1 ! clk $end
$var wire 1 4 reset $end
$var wire 1 5 incrementar_score $end
$var reg 8 + score_atual [7:0] $end
$var reg 7 ' display_out [6:0] $end
$var reg 8 6 score_reg [7:0] $end
$upscope $end
$scope module controller $end
$var wire 1 ! clk $end
$var wire 1 " reset $end
$var wire 1 # botao_start $end
$var wire 2 $ entrada_jogador [1:0] $end
$var wire 2 7 numero_aleatorio [1:0] $end
$var wire 8 8 score_atual [7:0] $end
$var wire 4 9 indice_sequencia [3:0] $end
$var reg 4 , sinais_de_controle [3:0] $end
$var reg 1 % partida_led $end
$var reg 4 & led_seq [3:0] $end
$var reg 1 ( win $end
$var reg 1 ) defeat $end
$var reg 4 : current_state $end
$var reg 4 ; next_state $end
$var reg 4 < i [3:0] $end
$var reg 4 = indice_show [3:0] $end
$var reg 1 > botao_prev $end
$upscope $end
$upscope $end
$upscope $end
$enddefinitions $end

#0
$dumpvars
0!
1"
0#
b0 $
0%
b0 &
b1000000 '
0(
0)
b0 *
b0 +
b0 ,
b0 -
0.
b1001 /
x0
01
b0 2
b0 3
14
05
b0 6
b0 7
b0 8
b0 9
b0 :
b0 ;
b0 <
bx =
0>
$end

#2500
1!

#5000
0!

#7500
1!

#10000
0!

#12500
1!

#15000
0!

#17500
1!

#20000
0!
0"
1#
04
b1 ;

#22500
1!
b10 *
b11 /
10
b10 2
b10 7
b1 :
b10 ;
1>

#25000
0!

#27500
1!
b0 *
b1 ,
1.
b110 /
00
b0 2
b0 7
b10 :
b11 ;

#30000
0!
0#
b1 ,
b11 ;

#32500
1!
b1 *
b10 ,
0.
b1101 /
10
11
b1 2
b1 7
b11 :
b100 ;
0>

#35000
0!

#37500
1!
1%
b10 &
b11 *
b0 ,
b1 -
b1010 /
00
01
b11 2
b1 3
b11 7
b1 9
b100 :
b1 =

#40000
0!

#42500
1!
b10 *
b101 /
10
b10 2
b10 7
b1 <

#45000
0!

#47500
1!
b1 *
b1011 /
b1 2
b1 7
b0 <

#50000
0!

#52500
1!
b10 *
b111 /
b10 2
b10 7
b1 <

#55000
0!

#57500
1!
b1 *
b1111 /
b1 2
b1 7
b0 <

#60000
0!

#62500
1!
b11 *
b1110 /
00
b11 2
b11 7
b1 <

#65000
0!

#67500
1!
b1100 /
b0 <

#70000
0!

#72500
1!
b1000 /
b1 <

#75000
0!

#77500
1!
b10 *
b1 /
10
b10 2
b10 7
b0 <

#80000
0!

#82500
1!
b0 *
b10 /
00
b0 2
b0 7
b1 <

#85000
0!

#87500
1!
b100 /
b0 <

#90000
0!

#92500
1!
b1 *
b1001 /
10
b1 2
b1 7
b1 <

#95000
0!

#97500
1!
b10 *
b11 /
b10 2
b10 7
b0 <

#100000
0!

#102500
1!
b0 *
b110 /
00
b0 2
b0 7
b1 <

#105000
0!

#107500
1!
b1 *
b1101 /
10
b1 2
b1 7
b0 <

#110000
0!

#112500
1!
b11 *
b1010 /
00
b11 2
b11 7
b1 <

#115000
0!

#117500
1!
b10 *
b101 /
10
b10 2
b10 7
b0 <

#120000
0!

#122500
1!
b1 *
b1011 /
b1 2
b1 7
b1 <

#125000
0!

#127500
1!
b10 *
b111 /
b10 2
b10 7
b0 <

#130000
0!

#132500
1!
b1 *
b1111 /
b1 2
b1 7
b1 <

#135000
0!

#137500
1!
b11 *
b1110 /
00
b11 2
b11 7
b0 <

#140000
0!

#142500
1!
b1100 /
b1 <

#145000
0!

#147500
1!
b1000 /
b0 <

#150000
0!

#152500
1!
b10 *
b1 /
10
b10 2
b10 7
b1 <

#155000
0!

#157500
1!
b0 *
b10 /
00
b0 2
b0 7
b0 <

#160000
0!

#162500
1!
b100 /
b1 <

#165000
0!

#167500
1!
b1 *
b1001 /
10
b1 2
b1 7
b0 <

#170000
0!

#172500
1!
b10 *
b11 /
b10 2
b10 7
b1 <

#175000
0!

#177500
1!
b0 *
b110 /
00
b0 2
b0 7
b0 <

#180000
0!

#182500
1!
b1 *
b1101 /
10
b1 2
b1 7
b1 <

#185000
0!

#187500
1!
b11 *
b1010 /
00
b11 2
b11 7
b0 <

#190000
0!

#192500
1!
b10 *
b101 /
10
b10 2
b10 7
b1 <

#195000
0!

#197500
1!
b1 *
b1011 /
b1 2
b1 7
b0 <

#200000
0!

#202500
1!
b10 *
b111 /
b10 2
b10 7
b1 <

#205000
0!

#207500
1!
b1 *
b1111 /
b1 2
b1 7
b0 <

#210000
0!

#212500
1!
b11 *
b1110 /
00
b11 2
b11 7
b1 <

#215000
0!

#217500
1!
b1100 /
b0 <

#220000
0!

#222500
1!
b1000 /
b1 <

#225000
0!

#227500
1!
b10 *
b1 /
10
b10 2
b10 7
b0 <

#230000
0!

#232500
1!
b0 *
b10 /
00
b0 2
b0 7
b1 <

#235000
0!

#237500
1!
b100 /
b0 <

#240000
0!

#242500
1!
b1 *
b1001 /
10
b1 2
b1 7
b1 <

#245000
0!

#247500
1!
b10 *
b11 /
b10 2
b10 7
b0 <

#250000
0!

#252500
1!
b0 *
b110 /
00
b0 2
b0 7
b1 <

#255000
0!

#257500
1!
b1 *
b1101 /
10
b1 2
b1 7
b0 <

#260000
0!

#262500
1!
b11 *
b1010 /
00
b11 2
b11 7
b1 <

#265000
0!

#267500
1!
b10 *
b101 /
10
b10 2
b10 7
b0 <

#270000
0!

#272500
1!
b1 *
b1011 /
b1 2
b1 7
b1 <

#275000
0!

#277500
1!
b10 *
b111 /
b10 2
b10 7
b0 <

#280000
0!

#282500
1!
b1 *
b1111 /
b1 2
b1 7
b1 <

#285000
0!

#287500
1!
b11 *
b1110 /
00
b11 2
b11 7
b0 <

#290000
0!

#292500
1!
b1100 /
b1 <

#295000
0!

#297500
1!
b1000 /
b0 <

#300000
0!

#302500
1!
b10 *
b1 /
10
b10 2
b10 7
b1 <

#305000
0!

#307500
1!
b0 *
b10 /
00
b0 2
b0 7
b0 <

#310000
0!

#312500
1!
b100 /
b1 <

#315000
0!

#317500
1!
b1 *
b1001 /
10
b1 2
b1 7
b0 <

#320000
0!

#322500
1!
b10 *
b11 /
b10 2
b10 7
b1 <

#325000
0!

#327500
1!
b0 *
b110 /
00
b0 2
b0 7
b0 <

#330000
0!

#332500
1!
b1 *
b1101 /
10
b1 2
b1 7
b1 <

#335000
0!

#337500
1!
b11 *
b1010 /
00
b11 2
b11 7
b0 <

#340000
0!

#342500
1!
b10 *
b101 /
10
b10 2
b10 7
b1 <

#345000
0!

#347500
1!
b1 *
b1011 /
b1 2
b1 7
b0 <

#350000
0!

#352500
1!
b10 *
b111 /
b10 2
b10 7
b1 <

#355000
0!

#357500
1!
b1 *
b1111 /
b1 2
b1 7
b0 <

#360000
0!

#362500
1!
b11 *
b1110 /
00
b11 2
b11 7
b1 <

#365000
0!

#367500
1!
b1100 /
b0 <

#370000
0!

#372500
1!
b1000 /
b1 <

#375000
0!

#377500
1!
b10 *
b1 /
10
b10 2
b10 7
b0 <

#380000
0!

#382500
1!
b0 *
b10 /
00
b0 2
b0 7
b1 <

#385000
0!

#387500
1!
b100 /
b0 <

#390000
0!

#392500
1!
b1 *
b1001 /
10
b1 2
b1 7
b1 <

#395000
0!

#397500
1!
b10 *
b11 /
b10 2
b10 7
b0 <

#400000
0!

#402500
1!
b0 *
b110 /
00
b0 2
b0 7
b1 <

#405000
0!

#407500
1!
b1 *
b1101 /
10
b1 2
b1 7
b0 <

#410000
0!

#412500
1!
b11 *
b1010 /
00
b11 2
b11 7
b1 <

#415000
0!

#417500
1!
b10 *
b101 /
10
b10 2
b10 7
b0 <

#420000
0!

#422500
1!
b1 *
b1011 /
b1 2
b1 7
b1 <

#425000
0!

#427500
1!
b10 *
b111 /
b10 2
b10 7
b0 <

#430000
0!

#432500
1!
b1 *
b1111 /
b1 2
b1 7
b1 <

#435000
0!

#437500
1!
b11 *
b1110 /
00
b11 2
b11 7
b0 <

#440000
0!

#442500
1!
b1100 /
b1 <

#445000
0!

#447500
1!
b1000 /
b0 <

#450000
0!

#452500
1!
b10 *
b1 /
10
b10 2
b10 7
b1 <

#455000
0!

#457500
1!
b0 *
b10 /
00
b0 2
b0 7
b0 <

#460000
0!

#462500
1!
b100 /
b1 <

#465000
0!

#467500
1!
b1 *
b1001 /
10
b1 2
b1 7
b0 <

#470000
0!

#472500
1!
b10 *
b11 /
b10 2
b10 7
b1 <

#475000
0!

#477500
1!
b0 *
b110 /
00
b0 2
b0 7
b0 <

#480000
0!

#482500
1!
b1 *
b1101 /
10
b1 2
b1 7
b1 <

#485000
0!

#487500
1!
b11 *
b1010 /
00
b11 2
b11 7
b0 <

#490000
0!

#492500
1!
b10 *
b101 /
10
b10 2
b10 7
b1 <

#495000
0!

#497500
1!
b1 *
b1011 /
b1 2
b1 7
b0 <

#500000
0!

#502500
1!
b10 *
b111 /
b10 2
b10 7
b1 <

#505000
0!

#507500
1!
b1 *
b1111 /
b1 2
b1 7
b0 <

#510000
0!

#512500
1!
b11 *
b1110 /
00
b11 2
b11 7
b1 <

#515000
0!

#517500
1!
b1100 /
b0 <

#520000
0!

#522500
1!
b1000 /
b1 <

#525000
0!

#527500
1!
b10 *
b1 /
10
b10 2
b10 7
b0 <

#530000
0!

#532500
1!
b0 *
b10 /
00
b0 2
b0 7
b1 <

#535000
0!

#537500
1!
b100 /
b0 <

#540000
0!

#542500
1!
b1 *
b1001 /
10
b1 2
b1 7
b1 <

#545000
0!

#547500
1!
b10 *
b11 /
b10 2
b10 7
b0 <

#550000
0!

#552500
1!
b0 *
b110 /
00
b0 2
b0 7
b1 <

#555000
0!

#557500
1!
b1 *
b1101 /
10
b1 2
b1 7
b0 <

#560000
0!

#562500
1!
b11 *
b1010 /
00
b11 2
b11 7
b1 <

#565000
0!

#567500
1!
b10 *
b101 /
10
b10 2
b10 7
b0 <

#570000
0!

#572500
1!
b1 *
b1011 /
b1 2
b1 7
b1 <

#575000
0!

#577500
1!
b10 *
b111 /
b10 2
b10 7
b0 <

#580000
0!

#582500
1!
b1 *
b1111 /
b1 2
b1 7
b1 <

#585000
0!

#587500
1!
b11 *
b1110 /
00
b11 2
b11 7
b0 <

#590000
0!

#592500
1!
b1100 /
b1 <

#595000
0!

#597500
1!
b1000 /
b0 <

#600000
0!

#602500
1!
b10 *
b1 /
10
b10 2
b10 7
b1 <

#605000
0!

#607500
1!
b0 *
b10 /
00
b0 2
b0 7
b0 <

#610000
0!

#612500
1!
b100 /
b1 <

#615000
0!

#617500
1!
b1 *
b1001 /
10
b1 2
b1 7
b0 <

#620000
0!

#622500
1!
b10 *
b11 /
b10 2
b10 7
b1 <

#625000
0!

#627500
1!
b0 *
b110 /
00
b0 2
b0 7
b0 <

#630000
0!

#632500
1!
b1 *
b1101 /
10
b1 2
b1 7
b1 <

#635000
0!

#637500
1!
b11 *
b1010 /
00
b11 2
b11 7
b0 <

#640000
0!

#642500
1!
b10 *
b101 /
10
b10 2
b10 7
b1 <

#645000
0!

#647500
1!
b1 *
b1011 /
b1 2
b1 7
b0 <

#650000
0!

#652500
1!
b10 *
b111 /
b10 2
b10 7
b1 <

#655000
0!

#657500
1!
b1 *
b1111 /
b1 2
b1 7
b0 <

#660000
0!

#662500
1!
b11 *
b1110 /
00
b11 2
b11 7
b1 <

#665000
0!

#667500
1!
b1100 /
b0 <

#670000
0!

#672500
1!
b1000 /
b1 <

#675000
0!

#677500
1!
b10 *
b1 /
10
b10 2
b10 7
b0 <

#680000
0!

#682500
1!
b0 *
b10 /
00
b0 2
b0 7
b1 <

#685000
0!

#687500
1!
b100 /
b0 <

#690000
0!

#692500
1!
b1 *
b1001 /
10
b1 2
b1 7
b1 <

#695000
0!

#697500
1!
b10 *
b11 /
b10 2
b10 7
b0 <

#700000
0!

#702500
1!
b0 *
b110 /
00
b0 2
b0 7
b1 <

#705000
0!

#707500
1!
b1 *
b1101 /
10
b1 2
b1 7
b0 <

#710000
0!

#712500
1!
b11 *
b1010 /
00
b11 2
b11 7
b1 <

#715000
0!

#717500
1!
b10 *
b101 /
10
b10 2
b10 7
b0 <

#720000
0!

#722500
1!
b1 *
b1011 /
b1 2
b1 7
b1 <

#725000
0!

#727500
1!
b10 *
b111 /
b10 2
b10 7
b0 <

#730000
0!

#732500
1!
b1 *
b1111 /
b1 2
b1 7
b1 <

#735000
0!

#737500
1!
b11 *
b1110 /
00
b11 2
b11 7
b0 <

#740000
0!

#742500
1!
b1100 /
b1 <

#745000
0!

#747500
1!
b1000 /
b0 <

#750000
0!

#752500
1!
b10 *
b1 /
10
b10 2
b10 7
b1 <

#755000
0!

#757500
1!
b0 *
b10 /
00
b0 2
b0 7
b0 <

#760000
0!

#762500
1!
b100 /
b1 <

#765000
0!

#767500
1!
b1 *
b1001 /
10
b1 2
b1 7
b0 <

#770000
0!

#772500
1!
b10 *
b11 /
b10 2
b10 7
b1 <

#775000
0!

#777500
1!
b0 *
b110 /
00
b0 2
b0 7
b0 <

#780000
0!

#782500
1!
b1 *
b1101 /
10
b1 2
b1 7
b1 <

#785000
0!

#787500
1!
b11 *
b1010 /
00
b11 2
b11 7
b0 <

#790000
0!

#792500
1!
b10 *
b101 /
10
b10 2
b10 7
b1 <

#795000
0!

#797500
1!
b1 *
b1011 /
b1 2
b1 7
b0 <

#800000
0!

#802500
1!
b10 *
b111 /
b10 2
b10 7
b1 <

#805000
0!

#807500
1!
b1 *
b1111 /
b1 2
b1 7
b0 <

#810000
0!

#812500
1!
b11 *
b1110 /
00
b11 2
b11 7
b1 <

#815000
0!

#817500
1!
b1100 /
b0 <

#820000
0!

#822500
1!
b1000 /
b1 <

#825000
0!

#827500
1!
b10 *
b1 /
10
b10 2
b10 7
b0 <

#830000
0!

#832500
1!
b0 *
b10 /
00
b0 2
b0 7
b1 <

#835000
0!

#837500
1!
b100 /
b0 <

#840000
0!

#842500
1!
b1 *
b1001 /
10
b1 2
b1 7
b1 <

#845000
0!

#847500
1!
b10 *
b11 /
b10 2
b10 7
b0 <

#850000
0!

#852500
1!
b0 *
b110 /
00
b0 2
b0 7
b1 <

#855000
0!

#857500
1!
b1 *
b1101 /
10
b1 2
b1 7
b0 <

#860000
0!

#862500
1!
b11 *
b1010 /
00
b11 2
b11 7
b1 <

#865000
0!

#867500
1!
b10 *
b101 /
10
b10 2
b10 7
b0 <

#870000
0!

#872500
1!
b1 *
b1011 /
b1 2
b1 7
b1 <

#875000
0!

#877500
1!
b10 *
b111 /
b10 2
b10 7
b0 <

#880000
0!

#882500
1!
b1 *
b1111 /
b1 2
b1 7
b1 <

#885000
0!

#887500
1!
b11 *
b1110 /
00
b11 2
b11 7
b0 <

#890000
0!

#892500
1!
b1100 /
b1 <

#895000
0!

#897500
1!
b1000 /
b0 <

#900000
0!

#902500
1!
b10 *
b1 /
10
b10 2
b10 7
b1 <

#905000
0!

#907500
1!
b0 *
b10 /
00
b0 2
b0 7
b0 <

#910000
0!

#912500
1!
b100 /
b1 <

#915000
0!

#917500
1!
b1 *
b1001 /
10
b1 2
b1 7
b0 <

#920000
0!

#922500
1!
b10 *
b11 /
b10 2
b10 7
b1 <

#925000
0!

#927500
1!
b0 *
b110 /
00
b0 2
b0 7
b0 <

#930000
0!

#932500
1!
b1 *
b1101 /
10
b1 2
b1 7
b1 <

#935000
0!

#937500
1!
b11 *
b1010 /
00
b11 2
b11 7
b0 <

#940000
0!

#942500
1!
b10 *
b101 /
10
b10 2
b10 7
b1 <

#945000
0!

#947500
1!
b1 *
b1011 /
b1 2
b1 7
b0 <

#950000
0!

#952500
1!
b10 *
b111 /
b10 2
b10 7
b1 <

#955000
0!

#957500
1!
b1 *
b1111 /
b1 2
b1 7
b0 <

#960000
0!

#962500
1!
b11 *
b1110 /
00
b11 2
b11 7
b1 <

#965000
0!

#967500
1!
b1100 /
b0 <

#970000
0!

#972500
1!
b1000 /
b1 <

#975000
0!

#977500
1!
b10 *
b1 /
10
b10 2
b10 7
b0 <

#980000
0!

#982500
1!
b0 *
b10 /
00
b0 2
b0 7
b1 <

#985000
0!

#987500
1!
b100 /
b0 <

#990000
0!

#992500
1!
b1 *
b1001 /
10
b1 2
b1 7
b1 <

#995000
0!

#997500
1!
b10 *
b11 /
b10 2
b10 7
b0 <

